…
A PDF manual of the function descriptions is included in the repository here: [/inst/doc/crs-help.pdf](https://github.com/tystan/crs/blob/master/inst/doc/crs-help.pdf).



# Example usage

You can reproduce the analysis in Brenton et al. (2019). First load one of the dataframes that come with the package: `brenton2019`.

```R
data(brenton2019) # load data from Brenton et al. (2019)
?brenton2019      # will bring up a description of the data
brenton2019       # have a look at data
## A tibble: 881 x 3
##       A     S     P
##   <int> <int> <int>
## 1     1     1    NA
## 2     1     1    NA
## 3     2     2    NA
## 4     2     2    NA
## 5     2     1     2
## 6     1     1     1
## 7     1     1     1
## 8     1     1    NA
## 9     1     1    NA
##10     1     1     1
## ... with 871 more rows
```
…
